<svg xmlns="http://www.w3.org/2000/svg" version="1.0" width="6597.000000pt" height="1603.000000pt" viewBox="0 0 6597.000000 1603.000000" preserveAspectRatio="xMidYMid meet">

<g transform="translate(0.000000,1603.000000) scale(0.100000,-0.100000)" fill="#000000" stroke="none">
<path d="M4710 14479 c-2483 -851 -4508 -1550 -4500 -1553 8 -3 177 -62 375 -130 l360 -123 3 -575 2 -575 -50 -7 c-139 -18 -335 -98 -453 -184 -250 -181 -405 -449 -439 -760 -22 -200 21 -517 103 -766 82 -248 250 -545 427 -756 112 -134 305 -317 422 -401 l100 -71 103 75 c265 193 528 500 694 807 227 420 316 953 217 1298 -46 163 -128 308 -245 436 -150 165 -414 300 -632 323 l-57 6 0 538 c0 297 3 539 8 539 15 1 2392 -815 2392 -821 0 -4 -56 -81 -125 -173 -1430 -1903 -1826 -4408 -1056 -6676 761 -2242 2599 -3995 4873 -4644 979 -280 2003 -351 3011 -210 1529 214 2951 914 4051 1993 403 397 694 747 991 1196 988 1492 1383 3259 1129 5050 -153 1079 -558 2121 -1182 3035 -69 102 -177 248 -304 414 l-17 22 1657 568 c911 312 1660 571 1664 574 4 4 -1994 693 -4440 1531 -2446 838 -4474 1534 -4507 1546 l-61 22 -4514 -1548z m7175 -639 c1449 -497 2635 -906 2635 -909 0 -3 -1192 -414 -2649 -914 l-2649 -908 -2644 907 c-1453 498 -2646 909 -2650 912 -10 10 5272 1822 5300 1818 12 -2 1208 -410 2657 -906z m-10640 -2787 c128 -39 249 -132 327 -252 77 -118 93 -184 92 -376 -1 -181 -20 -296 -80 -475 -86 -258 -280 -566 -474 -755 l-51 -50 -82 85 c-248 256 -427 585 -497 915 -31 142 -38 386 -15 475 44 169 170 324 325 398 47 22 102 44 123 47 l37 7 0 -83 0 -84 -162 -162 -163 -163 68 -67 67 -68 88 88 c48 48 91 87 95 87 4 0 7 -227 7 -505 l0 -505 95 0 95 0 0 317 0 318 93 -93 92 -92 68 68 67 67 -160 160 -160 160 0 283 0 282 28 -6 c15 -3 50 -13 77 -21z m6214 -613 c963 -330 1756 -600 1763 -600 7 0 800 270 1762 600 963 330 1754 600 1758 600 4 0 8 -421 8 -935 l0 -935 -56 -25 c-114 -50 -404 -159 -604 -225 -694 -232 -1365 -369 -2140 -436 -249 -21 -943 -30 -1210 -15 -1016 57 -1940 259 -2865 625 l-180 72 -3 937 c-1 588 1 937 7 937 6 0 798 -270 1760 -600z m6810 -167 c410 -682 676 -1451 781 -2258 10 -77 15 -143 12 -147 -11 -11 -3034 -1038 -3227 -1096 -1758 -530 -3676 -509 -5425 61 -98 32 -2348 808 -2969 1024 l-43 16 6 66 c56 562 252 1259 506 1801 106 226 304 584 371 670 18 25 19 6 19 -1051 l0 -1077 72 -35 c713 -344 1037 -480 1538 -647 1536 -513 3171 -659 4810 -429 887 125 1780 375 2610 732 164 70 348 155 673 311 l137 66 0 1090 c0 599 4 1090 8 1090 5 0 59 -84 121 -187z m824 -2805 c16 -194 1 -562 -33 -868 -180 -1595 -1017 -3055 -2310 -4026 -728 -547 -1563 -915 -2454 -1080 -71 -13 -131 -22 -134 -20 -2 3 14 71 37 153 363 1331 1073 2553 2051 3533 255 256 365 351 1180 1025 392 325 923 764 1179 977 256 213 469 387 472 387 3 1 9 -36 12 -81z m-10493 -971 c591 -483 1140 -935 1220 -1005 80 -69 244 -225 365 -346 307 -308 490 -518 740 -851 617 -821 1067 -1743 1329 -2722 29 -111 44 -104 -146 -67 -1412 273 -2687 1074 -3564 2237 -647 858 -1040 1861 -1149 2932 -19 182 -32 545 -27 712 l4 113 76 -63 c42 -34 560 -457 1152 -940z m4067 -1486 c419 -23 1018 -13 1461 25 101 8 186 13 189 11 2 -3 -31 -54 -73 -113 -359 -503 -725 -1159 -964 -1724 -29 -69 -55 -128 -59 -132 -3 -4 -40 70 -81 165 -229 531 -571 1142 -909 1625 -64 92 -120 172 -123 177 -4 6 61 4 175 -6 100 -9 273 -22 384 -28z"/>
</g>
</svg>

























</g>
</svg>